<?xml version="1.0" encoding="UTF-8" standalone="no"?>
<svg
   xmlns:dc="http://purl.org/dc/elements/1.1/"
   xmlns:cc="http://creativecommons.org/ns#"
   xmlns:rdf="http://www.w3.org/1999/02/22-rdf-syntax-ns#"
   xmlns:svg="http://www.w3.org/2000/svg"
   xmlns="http://www.w3.org/2000/svg"
   xmlns:sodipodi="http://sodipodi.sourceforge.net/DTD/sodipodi-0.dtd"
   xmlns:inkscape="http://www.inkscape.org/namespaces/inkscape"
   width="82.168861mm"
   height="82.859505mm"
   viewBox="0 0 82.16886 82.859504"
   version="1.1"
   id="svg8"
   inkscape:version="1.0.1 (3bc2e813f5, 2020-09-07)"
   sodipodi:docname="border.svg">
  <defs
     id="defs2" />
  <sodipodi:namedview
     id="base"
     pagecolor="#ffffff"
     bordercolor="#666666"
     borderopacity="1.0"
     inkscape:pageopacity="0.0"
     inkscape:pageshadow="2"
     inkscape:zoom="1.9531624"
     inkscape:cx="154.85896"
     inkscape:cy="148.37397"
     inkscape:document-units="mm"
     inkscape:current-layer="layer1"
     inkscape:document-rotation="0"
     showgrid="false"
     inkscape:window-width="1870"
     inkscape:window-height="1020"
     inkscape:window-x="50"
     inkscape:window-y="32"
     inkscape:window-maximized="1" />
  <metadata
     id="metadata5">
    <rdf:RDF>
      <cc:Work
         rdf:about="">
        <dc:format>image/svg+xml</dc:format>
        <dc:type
           rdf:resource="http://purl.org/dc/dcmitype/StillImage" />
        <dc:title />
      </cc:Work>
    </rdf:RDF>
  </metadata>
  <g
     inkscape:label="Ebene 1"
     inkscape:groupmode="layer"
     id="layer1"
     transform="translate(-65.798639,-107.17685)">
    <rect
       style="fill:#2e868e;stroke:#2e868e;stroke-width:0.324033;stroke-linejoin:bevel"
       id="rect2851"
       width="81.844826"
       height="82.535469"
       x="65.960655"
       y="107.33887" />
    <g
       id="g3576"
       transform="translate(0.26676941,0.07777405)">
      <path
         id="path839"
         style="fill:#a3d844;stroke:none;stroke-width:0.264583px;stroke-linecap:butt;stroke-linejoin:miter;stroke-opacity:1"
         d="M 106.61631,118.5 H 91.616309 l 15.000001,15 z"
         sodipodi:nodetypes="cccc" />
      <path
         id="path842"
         style="fill:#ad150e;stroke:none;stroke-width:0.264583px;stroke-linecap:butt;stroke-linejoin:miter;stroke-opacity:1"
         d="m 91.61631,133.5 h 15 l -15,-15 z"
         sodipodi:nodetypes="cccc" />
      <path
         id="path848"
         style="fill:#a3d844;stroke:none;stroke-width:0.264583px;stroke-linecap:butt;stroke-linejoin:miter;stroke-opacity:1"
         d="m 91.61631,148.5 h 15 l -15,-15 z"
         sodipodi:nodetypes="cccc" />
      <path
         id="path850"
         style="fill:#ad150e;stroke:none;stroke-width:0.264583px;stroke-linecap:butt;stroke-linejoin:miter;stroke-opacity:1"
         d="m 106.61631,133.5 h -15 l 15,15 z"
         sodipodi:nodetypes="cccc" />
      <path
         id="path854"
         style="fill:#a3d844;stroke:none;stroke-width:0.264583px;stroke-linecap:butt;stroke-linejoin:miter;stroke-opacity:1"
         d="M 91.61631,133.5 H 76.616309 l 15.000001,15 z"
         sodipodi:nodetypes="cccc" />
      <path
         id="path856"
         style="fill:#ad150e;stroke:none;stroke-width:0.264583px;stroke-linecap:butt;stroke-linejoin:miter;stroke-opacity:1"
         d="m 76.61631,148.5 h 15 l -15,-15 z"
         sodipodi:nodetypes="cccc" />
      <path
         id="path860"
         style="fill:#a3d844;stroke:none;stroke-width:0.264583px;stroke-linecap:butt;stroke-linejoin:miter;stroke-opacity:1"
         d="M 91.61631,118.5 H 76.616309 l 15.000001,15 z"
         sodipodi:nodetypes="cccc" />
      <path
         id="path862"
         style="fill:#ad150e;stroke:none;stroke-width:0.264583px;stroke-linecap:butt;stroke-linejoin:miter;stroke-opacity:1"
         d="m 76.61631,133.5 h 15 l -15,-15 z"
         sodipodi:nodetypes="cccc" />
      <path
         id="path866"
         style="fill:#ad150e;stroke:none;stroke-width:0.264583px;stroke-linecap:butt;stroke-linejoin:miter;stroke-opacity:1"
         d="m 106.61631,118.5 h 15 l -15,15 z"
         sodipodi:nodetypes="cccc" />
      <path
         id="path868"
         style="fill:#a3d844;stroke:none;stroke-width:0.264583px;stroke-linecap:butt;stroke-linejoin:miter;stroke-opacity:1"
         d="m 121.61631,133.5 h -15 l 15,-15 z"
         sodipodi:nodetypes="cccc" />
      <path
         id="path872"
         style="fill:#ad150e;stroke:none;stroke-width:0.264583px;stroke-linecap:butt;stroke-linejoin:miter;stroke-opacity:1"
         d="m 121.61631,148.5 h -15 l 15,-15 z"
         sodipodi:nodetypes="cccc" />
      <path
         id="path874"
         style="fill:#a3d844;stroke:none;stroke-width:0.264583px;stroke-linecap:butt;stroke-linejoin:miter;stroke-opacity:1"
         d="m 106.61631,133.5 h 15 l -15,15 z"
         sodipodi:nodetypes="cccc" />
      <path
         id="path878"
         style="fill:#ad150e;stroke:none;stroke-width:0.264583px;stroke-linecap:butt;stroke-linejoin:miter;stroke-opacity:1"
         d="m 121.61631,133.5 h 15 l -15,15 z"
         sodipodi:nodetypes="cccc" />
      <path
         id="path880"
         style="fill:#a3d844;stroke:none;stroke-width:0.264583px;stroke-linecap:butt;stroke-linejoin:miter;stroke-opacity:1"
         d="m 136.61631,148.5 h -15 l 15,-15 z"
         sodipodi:nodetypes="cccc" />
      <path
         id="path884"
         style="fill:#ad150e;stroke:none;stroke-width:0.264583px;stroke-linecap:butt;stroke-linejoin:miter;stroke-opacity:1"
         d="m 121.61631,118.5 h 15 l -15,15 z"
         sodipodi:nodetypes="cccc" />
      <path
         id="path886"
         style="fill:#a3d844;stroke:none;stroke-width:0.264583px;stroke-linecap:butt;stroke-linejoin:miter;stroke-opacity:1"
         d="m 136.61631,133.5 h -15 l 15,-15 z"
         sodipodi:nodetypes="cccc" />
      <path
         id="path890"
         style="fill:#ad150e;stroke:none;stroke-width:0.264583px;stroke-linecap:butt;stroke-linejoin:miter;stroke-opacity:1"
         d="M 106.61631,178.5 H 91.616309 l 15.000001,-15 z"
         sodipodi:nodetypes="cccc" />
      <path
         id="path892"
         style="fill:#a3d844;stroke:none;stroke-width:0.264583px;stroke-linecap:butt;stroke-linejoin:miter;stroke-opacity:1"
         d="m 91.61631,163.5 h 15 l -15,15 z"
         sodipodi:nodetypes="cccc" />
      <path
         id="path896"
         style="fill:#ad150e;stroke:none;stroke-width:0.264583px;stroke-linecap:butt;stroke-linejoin:miter;stroke-opacity:1"
         d="m 91.61631,148.5 h 15 l -15,15 z"
         sodipodi:nodetypes="cccc" />
      <path
         id="path898"
         style="fill:#a3d844;stroke:none;stroke-width:0.264583px;stroke-linecap:butt;stroke-linejoin:miter;stroke-opacity:1"
         d="m 106.61631,163.5 h -15 l 15,-15 z"
         sodipodi:nodetypes="cccc" />
      <path
         id="path902"
         style="fill:#ad150e;stroke:none;stroke-width:0.264583px;stroke-linecap:butt;stroke-linejoin:miter;stroke-opacity:1"
         d="M 91.61631,163.5 H 76.616309 l 15.000001,-15 z"
         sodipodi:nodetypes="cccc" />
      <path
         id="path904"
         style="fill:#a3d844;stroke:none;stroke-width:0.264583px;stroke-linecap:butt;stroke-linejoin:miter;stroke-opacity:1"
         d="m 76.61631,148.5 h 15 l -15,15 z"
         sodipodi:nodetypes="cccc" />
      <path
         id="path908"
         style="fill:#ad150e;stroke:none;stroke-width:0.264583px;stroke-linecap:butt;stroke-linejoin:miter;stroke-opacity:1"
         d="M 91.61631,178.5 H 76.616309 l 15.000001,-15 z"
         sodipodi:nodetypes="cccc" />
      <path
         id="path910"
         style="fill:#a3d844;stroke:none;stroke-width:0.264583px;stroke-linecap:butt;stroke-linejoin:miter;stroke-opacity:1"
         d="m 76.61631,163.5 h 15 l -15,15 z"
         sodipodi:nodetypes="cccc" />
      <path
         id="path914"
         style="fill:#a3d844;stroke:none;stroke-width:0.264583px;stroke-linecap:butt;stroke-linejoin:miter;stroke-opacity:1"
         d="m 106.6163,178.5 h 15 l -15,-15 z"
         sodipodi:nodetypes="cccc" />
      <path
         id="path916"
         style="fill:#ad150e;stroke:none;stroke-width:0.264583px;stroke-linecap:butt;stroke-linejoin:miter;stroke-opacity:1"
         d="m 121.6163,163.5 h -15 l 15,15 z"
         sodipodi:nodetypes="cccc" />
      <path
         id="path920"
         style="fill:#a3d844;stroke:none;stroke-width:0.264583px;stroke-linecap:butt;stroke-linejoin:miter;stroke-opacity:1"
         d="m 121.61631,148.5 h -15 l 15,15 z"
         sodipodi:nodetypes="cccc" />
      <path
         id="path922"
         style="fill:#ad150e;stroke:none;stroke-width:0.264583px;stroke-linecap:butt;stroke-linejoin:miter;stroke-opacity:1"
         d="m 106.61631,163.5 h 15 l -15,-15 z"
         sodipodi:nodetypes="cccc" />
      <path
         id="path926"
         style="fill:#a3d844;stroke:none;stroke-width:0.264583px;stroke-linecap:butt;stroke-linejoin:miter;stroke-opacity:1"
         d="m 121.6163,163.5 h 15 l -15,-15 z"
         sodipodi:nodetypes="cccc" />
      <path
         id="path928"
         style="fill:#ad150e;stroke:none;stroke-width:0.264583px;stroke-linecap:butt;stroke-linejoin:miter;stroke-opacity:1"
         d="m 136.6163,148.5 h -15 l 15,15 z"
         sodipodi:nodetypes="cccc" />
      <path
         id="path932"
         style="fill:#a3d844;stroke:none;stroke-width:0.264583px;stroke-linecap:butt;stroke-linejoin:miter;stroke-opacity:1"
         d="m 121.6163,178.5 h 15 l -15,-15 z"
         sodipodi:nodetypes="cccc" />
      <path
         id="path934"
         style="fill:#ad150e;stroke:none;stroke-width:0.264583px;stroke-linecap:butt;stroke-linejoin:miter;stroke-opacity:1"
         d="m 136.6163,163.5 h -15 l 15,15 z"
         sodipodi:nodetypes="cccc" />
      <rect
         style="fill:#000000;stroke-width:0.359947;stroke-linejoin:bevel;stroke-opacity:0.790663"
         id="rect2525"
         width="4.5"
         height="60.091255"
         x="136.6163"
         y="118.49967" />
      <rect
         style="fill:#000000;stroke-width:0.359947;stroke-linejoin:bevel;stroke-opacity:0.790663"
         id="rect2527"
         width="4.5"
         height="60.091255"
         x="72.11631"
         y="118.5" />
      <rect
         style="fill:#000000;stroke-width:0.385693;stroke-linejoin:bevel;stroke-opacity:0.790663"
         id="rect2529"
         width="4.5"
         height="68.994911"
         x="112.41251"
         y="-141.11121"
         transform="rotate(90)" />
      <rect
         style="fill:#000000;stroke-width:0.385693;stroke-linejoin:bevel;stroke-opacity:0.790663"
         id="rect2531"
         width="4.5"
         height="68.994911"
         x="180.14514"
         y="-141.11121"
         transform="rotate(90)" />
    </g>
  </g>
</svg>
