<?xml version="1.0" encoding="UTF-8" standalone="no"?>
<svg
   xmlns:dc="http://purl.org/dc/elements/1.1/"
   xmlns:cc="http://creativecommons.org/ns#"
   xmlns:rdf="http://www.w3.org/1999/02/22-rdf-syntax-ns#"
   xmlns:svg="http://www.w3.org/2000/svg"
   xmlns="http://www.w3.org/2000/svg"
   xmlns:sodipodi="http://sodipodi.sourceforge.net/DTD/sodipodi-0.dtd"
   xmlns:inkscape="http://www.inkscape.org/namespaces/inkscape"
   height="21"
   version="1.1"
   width="14"
   id="svg18"
   sodipodi:docname="hint.svg"
   inkscape:version="1.0.1 (3bc2e813f5, 2020-09-07)">
  <metadata
     id="metadata24">
    <rdf:RDF>
      <cc:Work
         rdf:about="">
        <dc:format>image/svg+xml</dc:format>
        <dc:type
           rdf:resource="http://purl.org/dc/dcmitype/StillImage" />
        <dc:title></dc:title>
      </cc:Work>
    </rdf:RDF>
  </metadata>
  <defs
     id="defs22" />
  <sodipodi:namedview
     pagecolor="#ffffff"
     bordercolor="#666666"
     borderopacity="1"
     objecttolerance="10"
     gridtolerance="10"
     guidetolerance="10"
     inkscape:pageopacity="0"
     inkscape:pageshadow="2"
     inkscape:window-width="1870"
     inkscape:window-height="1020"
     id="namedview20"
     showgrid="false"
     inkscape:zoom="4.8273116"
     inkscape:cx="3.075785"
     inkscape:cy="20.06153"
     inkscape:window-x="50"
     inkscape:window-y="32"
     inkscape:window-maximized="1"
     inkscape:current-layer="svg18" />
  <g
     transform="translate(-5,-1030.4)"
     id="g16">
    <path
       d="m 24,14 a 2,2 0 1 1 -4,0 2,2 0 1 1 4,0 z"
       fill="#7f8c8d"
       transform="matrix(1,0,0,1.25,-10,1031.4)"
       id="path2" />
    <path
       d="m 12,1030.4 c -3.866,0 -7,3.2 -7,7.2 0,3.1 3.125,5.9 4,7.8 0.875,1.8 0,5 0,5 l 3,-0.5 3,0.5 c 0,0 -0.875,-3.2 0,-5 0.875,-1.9 4,-4.7 4,-7.8 0,-4 -3.134,-7.2 -7,-7.2 z"
       fill="#f39c12"
       id="path4" />
    <path
       d="m 12,1030.4 c 3.866,0 7,3.2 7,7.2 0,3.1 -3.125,5.9 -4,7.8 -0.875,1.8 0,5 0,5 l -3,-0.5 z"
       fill="#f1c40f"
       id="path6" />
    <path
       d="m 9,1036.4 -1,1 4,12 4,-12 -1,-1 -1,1 -1,-1 -1,1 -1,-1 -1,1 z m 0,1 1,1 0.5,-0.5 0.5,-0.5 0.5,0.5 0.5,0.5 0.5,-0.5 0.5,-0.5 0.5,0.5 0.5,0.5 1,-1 0.438,0.4 -3.438,10.3 -3.4375,-10.3 z"
       fill="#e67e22"
       id="path8" />
    <rect
       fill="#bdc3c7"
       height="5"
       width="6"
       x="9"
       y="1045.4"
       id="rect10" />
    <path
       d="m 9,1045.4 v 5 h 3 v -1 h 3 v -1 h -3 v -1 h 3 v -1 h -3 v -1 z"
       fill="#95a5a6"
       id="path12" />
    <path
       d="m 9,1046.4 v 1 h 3 v -1 z m 0,2 v 1 h 3 v -1 z"
       fill="#7f8c8d"
       id="path14" />
  </g>
</svg>
